%YAML 1.1
%TAG !u! tag:unity3d.com,2011:
--- !u!1 &617486234439901880
GameObject:
  m_ObjectHideFlags: 0
  m_CorrespondingSourceObject: {fileID: 0}
  m_PrefabInstance: {fileID: 0}
  m_PrefabAsset: {fileID: 0}
  serializedVersion: 6
  m_Component:
  - component: {fileID: 617486234439901882}
  - component: {fileID: 3314972110850964041}
  - component: {fileID: 617486234439901883}
  m_Layer: 0
  m_Name: ActorStats
  m_TagString: Untagged
  m_Icon: {fileID: 0}
  m_NavMeshLayer: 0
  m_StaticEditorFlags: 0
  m_IsActive: 1
--- !u!4 &617486234439901882
Transform:
  m_ObjectHideFlags: 0
  m_CorrespondingSourceObject: {fileID: 0}
  m_PrefabInstance: {fileID: 0}
  m_PrefabAsset: {fileID: 0}
  m_GameObject: {fileID: 617486234439901880}
  m_LocalRotation: {x: -0, y: -0, z: -0, w: 1}
  m_LocalPosition: {x: -71.277664, y: 12.404881, z: 0}
  m_LocalScale: {x: 1, y: 1, z: 1}
  m_Children: []
  m_Father: {fileID: 0}
  m_RootOrder: 0
  m_LocalEulerAnglesHint: {x: 0, y: 0, z: 0}
--- !u!114 &3314972110850964041
MonoBehaviour:
  m_ObjectHideFlags: 0
  m_CorrespondingSourceObject: {fileID: 0}
  m_PrefabInstance: {fileID: 0}
  m_PrefabAsset: {fileID: 0}
  m_GameObject: {fileID: 617486234439901880}
  m_Enabled: 1
  m_EditorHideFlags: 0
  m_Script: {fileID: 11500000, guid: 4b660e9f29b44f140b156cc15ae01919, type: 3}
  m_Name: 
  m_EditorClassIdentifier: 
  statDisplay: {fileID: 617486234439901883}
--- !u!114 &617486234439901883
MonoBehaviour:
  m_ObjectHideFlags: 0
  m_CorrespondingSourceObject: {fileID: 0}
  m_PrefabInstance: {fileID: 0}
  m_PrefabAsset: {fileID: 0}
  m_GameObject: {fileID: 617486234439901880}
  m_Enabled: 1
  m_EditorHideFlags: 0
  m_Script: {fileID: 11500000, guid: be9d386f3acbdb84b8a642f5ea417252, type: 3}
  m_Name: 
  m_EditorClassIdentifier: 
  objectContainer: {fileID: 617486234439901882}
  displayObjects: []
  storePositions: []
  cols: 10
  xOffset: 1.2
  yOffset: 6
  timeToUpdatePositions: 0
  displayType: 2
  sorted: 0
